Forecasting II Project 2 - Group D
…
tra_meas: the measure done (for instance PAS_BRD for â€œPassengers on boardâ€)

tra_cov: the coverage of the measure (for instance, INTL for â€œInternational transportâ€)

geo: the country 2 letter code (CH for Switzerland, AT for Austria, etc.)

TIME_PERIOD: either the year, the quarter or the month (depending on freq) of the observation

OBS_VALUE: the measureâ€™s value, depending on the previous features

Codelists are available for each feature in separate .csv files (also downloadable via Eurostat).

EU dataset

## # A tibble: 190,104 x 6
##    freq  tra_meas tra_cov geo   TIME_PERIOD OBS_VALUE
##    <chr> <chr>    <chr>   <chr> <chr>           <int>
##  1 A     PAS_BRD  INTL    AT    1993          8506043
##  2 A     PAS_BRD  INTL    AT    1994          9132041
##  3 A     PAS_BRD  INTL    AT    1995         10266440
##  4 A     PAS_BRD  INTL    AT    1996         10930030
##  5 A     PAS_BRD  INTL    AT    1997         11777756
##  6 A     PAS_BRD  INTL    AT    1998         12732342
##  7 A     PAS_BRD  INTL    AT    1999         13276983
##  8 A     PAS_BRD  INTL    AT    2000         14220561
##  9 A     PAS_BRD  INTL    AT    2001         14138385
## 10 A     PAS_BRD  INTL    AT    2002         14625165
## # â€¦ with 190,094 more rows
…
